{
  "images" : [
    {
      "idiom" : "universal",
      "scale" : "1x",
      "filename" : "icon-tabbar-ask.png"
    },
    {
      "idiom" : "universal",
      "scale" : "2x",
      "filename" : "icon-tabbar-ask@2x.png"
    },
    {
      "idiom" : "universal",
      "scale" : "3x"
    }
  ],
  "info" : {
    "version" : 1,
    "author" : "xcode"
  }
}